{
	"credit": "Made with Blockbench",
	"textures": {
		"1": "railway/rail_golden",
		"2": "railway/rail_redstone",
		"1_1": "railway/rail_iron_light",
		"1_2": "railway/rail_iron_dark"
	},
	"elements": [
		{
			"from": [17, 9.60355, -3.85355],
			"to": [18.999, 12.60355, 19.14645],
			"rotation": {"angle": 45, "axis": "x", "origin": [17.9995, 11.10355, 7.64645]},
			"faces": {
				"north": {"uv": [2, 13, 3.999, 16], "texture": "#1_1"},
				"east": {"uv": [0, 0, 16, 3], "texture": "#1_1"},
				"south": {"uv": [13, 13, 14.999, 16], "texture": "#1_1"},
				"west": {"uv": [0, 13, 16, 16], "texture": "#1_1"},
				"up": {"uv": [9, 0, 10.999, 16], "texture": "#1_1"},
				"down": {"uv": [13, 0, 14.999, 16], "texture": "#1_1"}
			}
		},
		{
			"from": [-1, 9.78033, -3.53033],
			"to": [-0.001, 10.78033, 18.46967],
			"rotation": {"angle": 45, "axis": "x", "origin": [-0.5005, 10.28033, 7.46967]},
			"faces": {
				"north": {"uv": [12, 14.5, 12.999, 15.5], "texture": "#1_2"},
				"east": {"uv": [0, 15, 16, 16], "texture": "#1_2"},
				"south": {"uv": [3, 14.5, 3.999, 15.5], "texture": "#1_2"},
				"west": {"uv": [0, 14.5, 16, 15.5], "texture": "#1_2"},
				"up": {"uv": [9, 0, 9.999, 16], "texture": "#1_2"},
				"down": {"uv": [3, 0, 3.999, 16], "texture": "#1_2"}
			}
		},
		{
			"from": [16.001, 9.78033, -3.53033],
			"to": [17, 10.78033, 18.46967],
			"rotation": {"angle": 45, "axis": "x", "origin": [16.5005, 10.28033, 7.46967]},
			"faces": {
				"north": {"uv": [3, 14.5, 3.999, 15.5], "texture": "#1_2"},
				"east": {"uv": [0, 15, 16, 16], "texture": "#1_2"},
				"south": {"uv": [12, 14.5, 12.999, 15.5], "texture": "#1_2"},
				"west": {"uv": [0, 14.5, 16, 15.5], "texture": "#1_2"},
				"up": {"uv": [9, 0, 9.999, 16], "texture": "#1_2"},
				"down": {"uv": [12, 0, 12.999, 16], "texture": "#1_2"}
			}
		},
		{
			"from": [-2.999, 9.60355, -3.85355],
			"to": [-1, 12.60355, 19.14645],
			"rotation": {"angle": 45, "axis": "x", "origin": [-1.9995, 11.10355, 7.64645]},
			"faces": {
				"north": {"uv": [13, 13, 14.999, 16], "texture": "#1_1"},
				"east": {"uv": [0, 0, 16, 3], "texture": "#1_1"},
				"south": {"uv": [2, 13, 3.999, 16], "texture": "#1_1"},
				"west": {"uv": [0, 13, 16, 16], "texture": "#1_1"},
				"up": {"uv": [9, 0, 10.999, 16], "texture": "#1_1"},
				"down": {"uv": [2, 0, 3.999, 16], "texture": "#1_1"}
			}
		},
		{
			"from": [13.001, 9, -4.75],
			"to": [14.25, 10, 18.25],
			"rotation": {"angle": 45, "axis": "x", "origin": [13.6255, 9.5, 8]},
			"faces": {
				"north": {"uv": [8.5, 0, 9.749, 1], "texture": "#1"},
				"east": {"uv": [0, 0, 16, 1], "texture": "#1"},
				"south": {"uv": [0, 0, 1.249, 1], "texture": "#1"},
				"west": {"uv": [0, 0, 16, 1], "texture": "#1"},
				"up": {"uv": [8.5, 0, 9.749, 16], "texture": "#1"},
				"down": {"uv": [0, 0, 1.249, 16], "texture": "#1"}
			}
		},
		{
			"from": [3.252, 9, -4.75],
			"to": [4.501, 9.5, 18.25],
			"rotation": {"angle": 45, "axis": "x", "origin": [3.8765, 9.25, 8]},
			"faces": {
				"north": {"uv": [0, 0, 1.249, 0.5], "texture": "#2"},
				"east": {"uv": [0, 0, 16, 0.5], "texture": "#2"},
				"south": {"uv": [8.5, 0, 9.749, 0.5], "texture": "#2"},
				"west": {"uv": [0, 0, 16, 0.5], "texture": "#2"},
				"up": {"uv": [8.5, 0, 9.749, 16], "texture": "#2", "rotation": 180},
				"down": {"uv": [0, 0, 1.249, 16], "texture": "#2", "rotation": 180}
			}
		},
		{
			"from": [11.752, 9, -4.75],
			"to": [13.001, 9.5, 18.25],
			"rotation": {"angle": 45, "axis": "x", "origin": [12.3765, 9.25, 8]},
			"faces": {
				"north": {"uv": [0, 0, 1.249, 0.5], "texture": "#2"},
				"east": {"uv": [0, 0, 16, 0.5], "texture": "#2"},
				"south": {"uv": [8.5, 0, 9.749, 0.5], "texture": "#2"},
				"west": {"uv": [0, 0, 16, 0.5], "texture": "#2"},
				"up": {"uv": [8.5, 0, 9.749, 16], "texture": "#2", "rotation": 180},
				"down": {"uv": [0, 0, 1.249, 16], "texture": "#2", "rotation": 180}
			}
		},
		{
			"from": [2.001, 9, -4.75],
			"to": [3.25, 10, 18.25],
			"rotation": {"angle": 45, "axis": "x", "origin": [2.6255, 9.5, 8]},
			"faces": {
				"north": {"uv": [8.5, 0, 9.749, 1], "texture": "#1"},
				"east": {"uv": [0, 0, 16, 1], "texture": "#1"},
				"south": {"uv": [0, 0, 1.249, 1], "texture": "#1"},
				"west": {"uv": [0, 0, 16, 1], "texture": "#1"},
				"up": {"uv": [8.5, 0, 9.749, 16], "texture": "#1"},
				"down": {"uv": [0, 0, 1.249, 16], "texture": "#1"}
			}
		},
		{
			"from": [18, 1.25, 6.5],
			"to": [20, 11.25, 8.5],
			"rotation": {"angle": 0, "axis": "y", "origin": [19, 6.25, 7.5]},
			"faces": {
				"north": {"uv": [0, 0, 2, 10], "texture": "#1_2"},
				"east": {"uv": [0, 0, 2, 10], "texture": "#1_2"},
				"south": {"uv": [0, 0, 2, 10], "texture": "#1_2"},
				"west": {"uv": [0, 0, 2, 10], "texture": "#1_2"},
				"up": {"uv": [0, 0, 2, 2], "texture": "#1_2"},
				"down": {"uv": [0, 0, 2, 2], "texture": "#1_2"}
			}
		},
		{
			"from": [-4, 1.5, 6.5],
			"to": [-2, 11.5, 8.5],
			"rotation": {"angle": 0, "axis": "y", "origin": [-3, 6.5, 7.5]},
			"faces": {
				"north": {"uv": [0, 0, 2, 10], "texture": "#1_2"},
				"east": {"uv": [0, 0, 2, 10], "texture": "#1_2"},
				"south": {"uv": [0, 0, 2, 10], "texture": "#1_2"},
				"west": {"uv": [0, 0, 2, 10], "texture": "#1_2"},
				"up": {"uv": [0, 0, 2, 2], "texture": "#1_2"},
				"down": {"uv": [0, 0, 2, 2], "texture": "#1_2"}
			}
		},
		{
			"from": [10.75, 8.25, 5.5],
			"to": [20.75, 10.25, 7.5],
			"rotation": {"angle": 45, "axis": "x", "origin": [15.75, 9.25, 6.5]},
			"faces": {
				"north": {"uv": [0, 0, 2, 10], "texture": "#1_2", "rotation": 270},
				"east": {"uv": [0, 0, 2, 2], "texture": "#1_2", "rotation": 90},
				"south": {"uv": [0, 0, 2, 10], "texture": "#1_2", "rotation": 90},
				"west": {"uv": [0, 0, 2, 2], "texture": "#1_2", "rotation": 90},
				"up": {"uv": [0, 0, 2, 10], "texture": "#1_2", "rotation": 90},
				"down": {"uv": [0, 0, 2, 10], "texture": "#1_2", "rotation": 90}
			}
		},
		{
			"from": [-4.5, 8.25, 5.5],
			"to": [5.5, 10.25, 7.5],
			"rotation": {"angle": 45, "axis": "x", "origin": [0.5, 9.25, 6.5]},
			"faces": {
				"north": {"uv": [0, 0, 2, 10], "texture": "#1_2", "rotation": 270},
				"east": {"uv": [0, 0, 2, 2], "texture": "#1_2", "rotation": 90},
				"south": {"uv": [0, 0, 2, 10], "texture": "#1_2", "rotation": 90},
				"west": {"uv": [0, 0, 2, 2], "texture": "#1_2", "rotation": 90},
				"up": {"uv": [5, 1, 7, 11], "texture": "#1_2", "rotation": 90},
				"down": {"uv": [0, 0, 2, 10], "texture": "#1_2", "rotation": 90}
			}
		}
	],
	"groups": [
		{
			"name": "rail",
			"isOpen": true,
			"shade": true,
			"display": {
				"visibility": true,
				"autouv": true
			},
			"children": [0, 1, 2, 3]
		},
		{
			"name": "rail_raised_ne",
			"isOpen": true,
			"shade": true,
			"display": {
				"visibility": true,
				"autouv": true
			},
			"children": [4, 5, 6, 7,
				{
					"name": "rail_holders",
					"isOpen": true,
					"shade": true,
					"display": {
						"visibility": true,
						"autouv": true
					},
					"children": [
						{
							"name": "rail_holder",
							"isOpen": true,
							"shade": true,
							"display": {
								"visibility": true,
								"autouv": true
							},
							"children": [8, 9, 10, 11]
						},
						{
							"name": "rail_holder",
							"isOpen": true,
							"shade": true,
							"display": {
								"visibility": true,
								"autouv": true
							},
							"children": []
						}
					]
				}
			]
		}
	]
}