{
	"credit": "Made with Blockbench",
	"textures": {
		"0": "railway/rail_block",
		"particle": "railway/rail_block"
	},
	"elements": [
		{
			"name": "wood_block",
			"from": [-12, 0.75, 5],
			"to": [-8, 2, 10],
			"rotation": {"angle": 0, "axis": "x", "origin": [8, 10.75, 12]},
			"faces": {
				"north": {"uv": [0, 0, 4, 1.25], "texture": "#0"},
				"east": {"uv": [0, 0, 7, 1.25], "texture": "#0"},
				"south": {"uv": [0, 0, 4, 1.25], "texture": "#0"},
				"west": {"uv": [1, 15, 3, 16], "texture": "#0"},
				"up": {"uv": [0, 0, 4, 7], "texture": "#0"},
				"down": {"uv": [1, 13, 15, 15], "texture": "#0", "cullface": "down"}
			}
		},
		{
			"name": "wood_block",
			"from": [-12, -0.25, 5],
			"to": [28, 1, 10],
			"rotation": {"angle": 0, "axis": "x", "origin": [8, 9.75, 12]},
			"faces": {
				"north": {"uv": [0, 0, 16, 1.5], "texture": "#0"},
				"east": {"uv": [15, 16, 13, 15], "texture": "#0"},
				"south": {"uv": [1, 14.5, 15.5, 16], "texture": "#0"},
				"west": {"uv": [1, 15, 3, 16], "texture": "#0"},
				"up": {"uv": [0, 0, 16, 3.5], "texture": "#0"},
				"down": {"uv": [1, 13, 15, 15], "texture": "#0", "cullface": "down"}
			}
		},
		{
			"name": "wood_block",
			"from": [24, 0.75, 5],
			"to": [28, 2, 10],
			"rotation": {"angle": 0, "axis": "x", "origin": [8, 10.75, 12]},
			"faces": {
				"north": {"uv": [0, 0, 4, 1.25], "texture": "#0"},
				"east": {"uv": [3, 15, 1, 16], "texture": "#0"},
				"south": {"uv": [0, 0, 4, 1.25], "texture": "#0"},
				"west": {"uv": [0, 0, 7, 1.25], "texture": "#0"},
				"up": {"uv": [4, 0, 0, 7], "texture": "#0"},
				"down": {"uv": [15, 13, 1, 15], "texture": "#0", "cullface": "down"}
			}
		},
		{
			"name": "wood_block",
			"from": [22, 0.25, 5],
			"to": [26, 1.5, 10],
			"rotation": {"angle": 0, "axis": "x", "origin": [6, 10.25, 12]},
			"faces": {
				"north": {"uv": [0, 0, 4, 1.25], "texture": "#0"},
				"east": {"uv": [3, 15, 1, 16], "texture": "#0"},
				"south": {"uv": [0, 0, 4, 1.25], "texture": "#0"},
				"west": {"uv": [0, 0, 7, 1.25], "texture": "#0"},
				"up": {"uv": [4, 0, 0, 7], "texture": "#0"},
				"down": {"uv": [15, 13, 1, 15], "texture": "#0", "cullface": "down"}
			}
		},
		{
			"name": "wood_block",
			"from": [-10, 0.25, 5],
			"to": [-6, 1.5, 10],
			"rotation": {"angle": 0, "axis": "x", "origin": [10, 10.25, 12]},
			"faces": {
				"north": {"uv": [4, 0, 0, 1.25], "texture": "#0"},
				"east": {"uv": [7, 0, 0, 1.25], "texture": "#0"},
				"south": {"uv": [4, 0, 0, 1.25], "texture": "#0"},
				"west": {"uv": [1, 15, 3, 16], "texture": "#0"},
				"up": {"uv": [0, 0, 4, 7], "texture": "#0"},
				"down": {"uv": [1, 13, 15, 15], "texture": "#0", "cullface": "down"}
			}
		}
	],
	"groups": [
		{
			"name": "rail_block",
			"isOpen": false,
			"shade": true,
			"display": {
				"visibility": true,
				"autouv": true
			},
			"children": [0, 1, 2, 3, 4]
		}
	]
}