{
	"credit": "Made with Blockbench, a free, modern block model editor by JannisX11",
	"textures": {
		"0": "blocks/anvil_base",
		"1": "blocks/concrete_silver",
		"particle": "blocks/anvil_base"
	},
	"elements": [
		{
			"name": "antenna bottom",
			"from": [7.8125, -14, 8.8125],
			"to": [8.1875, -6, 9.1875],
			"faces": {
				"north": {"uv": [0, 0, 1, 16], "texture": "#0"},
				"east": {"uv": [8, 0, 9, 16], "texture": "#0"},
				"south": {"uv": [12, 0, 13, 16], "texture": "#0"},
				"west": {"uv": [4, 0, 5, 16], "texture": "#0"},
				"up": {"uv": [3, 3, 3.5, 4], "texture": "#0"},
				"down": {"uv": [8, 8, 9, 9], "texture": "#0"}
			}
		},
		{
			"name": "antenna top",
			"from": [7.875, -6, 8.875],
			"to": [8.125, 32, 9.125],
			"faces": {
				"north": {"uv": [0, 0, 1.4, 16], "texture": "#1"},
				"east": {"uv": [2, 0, 3.4, 16], "texture": "#1"},
				"south": {"uv": [6.8, 0, 8.2, 16], "texture": "#1"},
				"west": {"uv": [11, 0, 12.4, 16], "texture": "#1"},
				"up": {"uv": [7.8, 8.8, 8.2, 9.2], "texture": "#1"},
				"down": {"uv": [7.8, 6.8, 8.2, 7.2], "texture": "#1"}
			}
		},
		{
			"from": [5.75, 18, 8.625],
			"to": [10.25, 18.125, 9.375],
			"rotation": {"angle": 0, "axis": "y", "origin": [7.875, 18.0625, 9]},
			"faces": {
				"north": {"uv": [0, 0, 0.75, 0.125], "texture": "#1"},
				"east": {"uv": [0, 0, 4.5, 0.125], "texture": "#1"},
				"south": {"uv": [0, 0, 0.75, 0.125], "texture": "#1"},
				"west": {"uv": [0, 0, 4.5, 0.125], "texture": "#1"},
				"up": {"uv": [0, 0, 0.75, 4.5], "texture": "#1"},
				"down": {"uv": [0, 0, 0.75, 4.5], "texture": "#1"}
			}
		},
		{
			"from": [10.25, 18, 8.75],
			"to": [12.25, 18.125, 8.875],
			"faces": {
				"north": {"uv": [0, 0, 2, 0.125], "texture": "#1"},
				"east": {"uv": [0, 0, 0.125, 0.125], "texture": "#1"},
				"south": {"uv": [0, 0, 2, 0.125], "texture": "#1"},
				"west": {"uv": [0, 0, 0.125, 0.125], "texture": "#1"},
				"up": {"uv": [0, 0, 2, 0.125], "texture": "#1"},
				"down": {"uv": [0, 0, 2, 0.125], "texture": "#1"}
			}
		},
		{
			"from": [3.75, 18, 8.75],
			"to": [5.75, 18.125, 8.875],
			"faces": {
				"north": {"uv": [0, 0, 2, 0.125], "texture": "#1"},
				"east": {"uv": [0, 0, 0.125, 0.125], "texture": "#1"},
				"south": {"uv": [0, 0, 2, 0.125], "texture": "#1"},
				"west": {"uv": [0, 0, 0.125, 0.125], "texture": "#1"},
				"up": {"uv": [0, 0, 2, 0.125], "texture": "#1"},
				"down": {"uv": [0, 0, 2, 0.125], "texture": "#1"}
			}
		},
		{
			"from": [3.75, 18, 9.125],
			"to": [5.75, 18.125, 9.25],
			"faces": {
				"north": {"uv": [0, 0, 2, 0.125], "texture": "#1"},
				"east": {"uv": [0, 0, 0.125, 0.125], "texture": "#1"},
				"south": {"uv": [0, 0, 2, 0.125], "texture": "#1"},
				"west": {"uv": [0, 0, 0.125, 0.125], "texture": "#1"},
				"up": {"uv": [0, 0, 2, 0.125], "texture": "#1"},
				"down": {"uv": [0, 0, 2, 0.125], "texture": "#1"}
			}
		},
		{
			"from": [10.25, 18, 9.125],
			"to": [12.25, 18.125, 9.25],
			"faces": {
				"north": {"uv": [0, 0, 2, 0.125], "texture": "#1"},
				"east": {"uv": [0, 0, 0.125, 0.125], "texture": "#1"},
				"south": {"uv": [0, 0, 2, 0.125], "texture": "#1"},
				"west": {"uv": [0, 0, 0.125, 0.125], "texture": "#1"},
				"up": {"uv": [0, 0, 2, 0.125], "texture": "#1"},
				"down": {"uv": [0, 0, 2, 0.125], "texture": "#1"}
			}
		},
		{
			"from": [10.25, 18, 8.875],
			"to": [14.25, 18.125, 9.125],
			"faces": {
				"north": {"uv": [0, 0, 4, 0.125], "texture": "#1"},
				"east": {"uv": [0, 0, 0.25, 0.125], "texture": "#1"},
				"south": {"uv": [0, 0, 4, 0.125], "texture": "#1"},
				"west": {"uv": [0, 0, 0.25, 0.125], "texture": "#1"},
				"up": {"uv": [0, 0, 4, 0.25], "texture": "#1"},
				"down": {"uv": [0, 0, 4, 0.25], "texture": "#1"}
			}
		},
		{
			"from": [1.75, 18, 8.875],
			"to": [5.75, 18.125, 9.125],
			"faces": {
				"north": {"uv": [0, 0, 4, 0.125], "texture": "#1"},
				"east": {"uv": [0, 0, 0.25, 0.125], "texture": "#1"},
				"south": {"uv": [0, 0, 4, 0.125], "texture": "#1"},
				"west": {"uv": [0, 0, 0.25, 0.125], "texture": "#1"},
				"up": {"uv": [0, 0, 4, 0.25], "texture": "#1"},
				"down": {"uv": [0, 0, 4, 0.25], "texture": "#1"}
			}
		},
		{
			"from": [6.59375, 22.125, 8.76563],
			"to": [9.40625, 22.25, 9.23438],
			"rotation": {"angle": 0, "axis": "y", "origin": [7.92188, 22.1875, 9]},
			"faces": {
				"north": {"uv": [0, 0, 0.75, 0.125], "texture": "#1"},
				"east": {"uv": [0, 0, 4.5, 0.125], "texture": "#1"},
				"south": {"uv": [0, 0, 0.75, 0.125], "texture": "#1"},
				"west": {"uv": [0, 0, 4.5, 0.125], "texture": "#1"},
				"up": {"uv": [0, 0, 0.75, 4.5], "texture": "#1"},
				"down": {"uv": [0, 0, 0.75, 4.5], "texture": "#1"}
			}
		},
		{
			"from": [9.40625, 22.125, 8.84375],
			"to": [10.65625, 22.25, 8.92188],
			"faces": {
				"north": {"uv": [0, 0, 2, 0.125], "texture": "#1"},
				"east": {"uv": [0, 0, 0.125, 0.125], "texture": "#1"},
				"south": {"uv": [0, 0, 2, 0.125], "texture": "#1"},
				"west": {"uv": [0, 0, 0.125, 0.125], "texture": "#1"},
				"up": {"uv": [0, 0, 2, 0.125], "texture": "#1"},
				"down": {"uv": [0, 0, 2, 0.125], "texture": "#1"}
			}
		},
		{
			"from": [5.34375, 22.125, 8.84375],
			"to": [6.59375, 22.25, 8.92188],
			"faces": {
				"north": {"uv": [0, 0, 2, 0.125], "texture": "#1"},
				"east": {"uv": [0, 0, 0.125, 0.125], "texture": "#1"},
				"south": {"uv": [0, 0, 2, 0.125], "texture": "#1"},
				"west": {"uv": [0, 0, 0.125, 0.125], "texture": "#1"},
				"up": {"uv": [0, 0, 2, 0.125], "texture": "#1"},
				"down": {"uv": [0, 0, 2, 0.125], "texture": "#1"}
			}
		},
		{
			"from": [5.34375, 22.125, 9.07813],
			"to": [6.59375, 22.25, 9.15625],
			"faces": {
				"north": {"uv": [0, 0, 2, 0.125], "texture": "#1"},
				"east": {"uv": [0, 0, 0.125, 0.125], "texture": "#1"},
				"south": {"uv": [0, 0, 2, 0.125], "texture": "#1"},
				"west": {"uv": [0, 0, 0.125, 0.125], "texture": "#1"},
				"up": {"uv": [0, 0, 2, 0.125], "texture": "#1"},
				"down": {"uv": [0, 0, 2, 0.125], "texture": "#1"}
			}
		},
		{
			"from": [9.40625, 22.125, 9.07813],
			"to": [10.65625, 22.25, 9.15625],
			"faces": {
				"north": {"uv": [0, 0, 2, 0.125], "texture": "#1"},
				"east": {"uv": [0, 0, 0.125, 0.125], "texture": "#1"},
				"south": {"uv": [0, 0, 2, 0.125], "texture": "#1"},
				"west": {"uv": [0, 0, 0.125, 0.125], "texture": "#1"},
				"up": {"uv": [0, 0, 2, 0.125], "texture": "#1"},
				"down": {"uv": [0, 0, 2, 0.125], "texture": "#1"}
			}
		},
		{
			"from": [9.40625, 22.125, 8.92188],
			"to": [11.90625, 22.25, 9.07813],
			"faces": {
				"north": {"uv": [0, 0, 4, 0.125], "texture": "#1"},
				"east": {"uv": [0, 0, 0.25, 0.125], "texture": "#1"},
				"south": {"uv": [0, 0, 4, 0.125], "texture": "#1"},
				"west": {"uv": [0, 0, 0.25, 0.125], "texture": "#1"},
				"up": {"uv": [0, 0, 4, 0.25], "texture": "#1"},
				"down": {"uv": [0, 0, 4, 0.25], "texture": "#1"}
			}
		},
		{
			"from": [4.09375, 22.125, 8.92188],
			"to": [6.59375, 22.25, 9.07813],
			"faces": {
				"north": {"uv": [0, 0, 4, 0.125], "texture": "#1"},
				"east": {"uv": [0, 0, 0.25, 0.125], "texture": "#1"},
				"south": {"uv": [0, 0, 4, 0.125], "texture": "#1"},
				"west": {"uv": [0, 0, 0.25, 0.125], "texture": "#1"},
				"up": {"uv": [0, 0, 4, 0.25], "texture": "#1"},
				"down": {"uv": [0, 0, 4, 0.25], "texture": "#1"}
			}
		}
	],
	"display": {
		"thirdperson_righthand": {
			"rotation": [0, 0, 0]
		},
		"head": {
			"scale": [0.8, 0.8, 0.8],
			"translation": [0, 12, 0]
		},
		"fixed": {
			"translation": [0, 0, -2],
			"rotation": [0, 0, 45]
		},
		"gui": {
			"scale": [1.675, 1.675, 1.6],
			"rotation": [-1, -15, -44]
		}
	},
	"groups": [0, 1,
		{
			"name": "lower horizontal part",
			"isOpen": false,
			"shade": true,
			"display": {
				"visibility": true,
				"autouv": true
			},
			"children": [2, 3, 4, 5, 6, 7, 8]
		},
		{
			"name": "upper horizontal part",
			"isOpen": true,
			"shade": true,
			"display": {
				"visibility": true,
				"autouv": true
			},
			"children": [9, 10, 11, 12, 13, 14, 15]
		}
	]
}