{
  "parent": "item/handheld",
  "textures": {
    "layer0": "items/diamond_pickaxe"
  },
  "overrides": [
    {
      "predicate": {
        "damaged": 0,
        "damage": 0
      },
      "model": "item/diamond_pickaxe"
    },
    {
      "predicate": {
        "damaged": 0,
        "damage": 0.0006406149903907751
      },
      "model": "item/trains/keisen_3000_head"
    },
    {
      "predicate": {
        "damaged": 0,
        "damage": 0.0012812299807815502
      },
      "model": "item/trains/keisen_3000_middle"
    },
    {
      "predicate": {
        "damaged": 0,
        "damage": 0.0019218449711723253
      },
      "model": "item/trains/components/pantograph_single"
    },
    {
      "predicate": {
        "damaged": 0,
        "damage": 0.0025624599615631004
      },
      "model": "item/trains/components/pantograph_double"
    },
    {
      "predicate": {
        "damaged": 0,
        "damage": 0.0032030749519538753
      },
      "model": "item/trains/keisen_4000_head"
    },
    {
      "predicate": {
        "damaged": 0,
        "damage": 0.0038436899423446506
      },
      "model": "item/trains/keisen_4000_middle"
    },
    {
      "predicate": {
        "damaged": 0,
        "damage": 0.004484304932735426
      },
      "model": "item/trains/tramlink1_front"
    },
    {
      "predicate": {
        "damaged": 0,
        "damage": 0.005124919923126201
      },
      "model": "item/trains/tramlink1_middle"
    },
    {
      "predicate": {
        "damaged": 0,
        "damage": 0.005765534913516977
      },
      "model": "item/trains/tramlink1_middle2"
    },
    {
      "predicate": {
        "damaged": 0,
        "damage": 0.3203074951953876
      },
      "model": "item/bus/denisdart_1"
    },
    {
      "predicate": {
        "damaged": 0,
        "damage": 0.32094811018577835
      },
      "model": "item/bus/denisdart_2"
    },
    {
      "predicate": {
        "damaged": 0,
        "damage": 0.3215887251761691
      },
      "model": "item/bus/denisdart_3"
    },
    {
      "predicate": {
        "damaged": 0,
        "damage": 0.3222293401665599
      },
      "model": "item/bus/denisdart_4"
    },
    {
      "predicate": {
        "damaged": 0,
        "damage": 0.32351057014734147
      },
      "model": "item/bus/denisdart_5"
    },
    {
      "predicate": {
        "damaged": 0,
        "damage": 0.3241511851377322
      },
      "model": "item/bus/denisdart_roof"
    },
    {
      "predicate": {
        "damaged": 0,
        "damage": 0.324791800128123
      },
      "model": "item/bus/denisdart_roof_back"
    },
    {
      "predicate": {
        "damaged": 0,
        "damage": 0.3254324151185138
      },
      "model": "item/bus/denisdart_roof_front"
    },
    {
      "predicate": {
        "damaged": 1,
        "damage": 0
      },
      "model": "item/diamond_pickaxe"
    }
  ]
}